{
  "kind": "youtube#videoListResponse",
  "etag": "lzjhyms_2QiGmRU2sOxx10D1oZs",
  "items": [
    {
      "kind": "youtube#video",
      "etag": "MNn8vRXb1gqb4rivOIov9YD6WXk",
      "id": "dKS5JIdq7IA",
      "snippet": {
        "publishedAt": "2018-11-03T23:17:30Z",
        "channelId": "UC1WpzCFhUytyMsi6SQTdq7A",
        "title": "Aquário Virtual - Flautas Indígenas e Musica Calma (Virtual Aquarium)",
        "description": "Pra Dormir e Relaxar ...\nAquário Virtual - Flautas Indígenas e Musica Calma (Virtual Aquarium)\nPara Adultos e Bebês (For Adults and Babies)\n\nA observação de peixinhos num aquário sempre foi um passatempo tranquilo e relaxante, ainda mais quando é somado aos sons das maravilhosas Flautas Indígenas Nativas e Teclados Suaves.\nEntre em nosso Aquario Virtual e tenha um bom descanso e bons Sonhos... Bom para o Bebê! Bom para Você!\n(Rick Jones Anderson)\n\nhttps://youtu.be/dKS5JIdq7IA",
        "thumbnails": {
          "default": {
            "url": "https://i.ytimg.com/vi/dKS5JIdq7IA/default.jpg",
            "width": 120,
            "height": 90
          },
          "medium": {
            "url": "https://i.ytimg.com/vi/dKS5JIdq7IA/mqdefault.jpg",
            "width": 320,
            "height": 180
          },
          "high": {
            "url": "https://i.ytimg.com/vi/dKS5JIdq7IA/hqdefault.jpg",
            "width": 480,
            "height": 360
          },
          "standard": {
            "url": "https://i.ytimg.com/vi/dKS5JIdq7IA/sddefault.jpg",
            "width": 640,
            "height": 480
          }
        },
        "channelTitle": "Rick Jones Anderson - Exótica Vídeos",
        "tags": [
          "Músicas Para Dormir e Relaxamento",
          "Rick Jones Anderson (Musical Artist)",
          "Exótica Relax Vídeos",
          "Virtual Aquarium",
          "Aquário Virtual",
          "Indian Flite",
          "Aquário Virtual - Flautas Indígenas e Musica Calma",
          "Virtual Aquarium & Native Indian Flutes",
          "Para Insônia",
          "Meditação (Meditation)",
          "Sons da natureza",
          "Flauta Indígena Nativa",
          "Sons de Piano",
          "Peixinhos no aquario",
          "Sons de Água",
          "Water Sounds",
          "Sons da Floresta",
          "Sons de Teclados"
        ],
        "categoryId": "22",
        "liveBroadcastContent": "none",
        "localized": {
          "title": "Aquário Virtual - Flautas Indígenas e Musica Calma (Virtual Aquarium)",
          "description": "Pra Dormir e Relaxar ...\nAquário Virtual - Flautas Indígenas e Musica Calma (Virtual Aquarium)\nPara Adultos e Bebês (For Adults and Babies)\n\nA observação de peixinhos num aquário sempre foi um passatempo tranquilo e relaxante, ainda mais quando é somado aos sons das maravilhosas Flautas Indígenas Nativas e Teclados Suaves.\nEntre em nosso Aquario Virtual e tenha um bom descanso e bons Sonhos... Bom para o Bebê! Bom para Você!\n(Rick Jones Anderson)\n\nhttps://youtu.be/dKS5JIdq7IA"
        }
      },
      "statistics": {
        "viewCount": "322739",
        "likeCount": "2195",
        "dislikeCount": "165",
        "favoriteCount": "0",
        "commentCount": "82"
      }
    }
  ],
  "pageInfo": {
    "totalResults": 1,
    "resultsPerPage": 1
  }
}

